Example_Analysis • randomForest
…
Load Data

#tuesdata <- tidytuesdayR::tt_load("2020-01-28")
#sf_trees <- tuesdata$sf_trees
if (!file.exists(here("data", "tuesdata_sf_trees.RDS"))) {
    tuesdata <- tidytuesdayR::tt_load("2020-01-28")
    sf_trees <- tuesdata$sf_trees

    # save the files to RDS objects
    saveRDS(tuesdata$sf_trees, file = here("data", "tuesdata_sf_trees.RDS"))
}
#load the data
sf_trees <- readRDS(here("data", "tuesdata_sf_trees.RDS"))
as_tibble(sf_trees)
#> # A tibble: 192,987 × 12
#>    tree_id legal_status   species         address site_order site_info caretaker
#>      <dbl> <chr>          <chr>           <chr>        <dbl> <chr>     <chr>    
#>  1   53719 Permitted Site Tree(s) ::      2963 W…          1 Sidewalk… Private  
#>  2   30313 Permitted Site Tree(s) ::      501 Ar…          3 Sidewalk… Private  
#>  3   30312 Permitted Site Tree(s) ::      501 Ar…          2 Sidewalk… Private  
#>  4   30314 DPW Maintained Pittosporum un… 501 Ar…          1 Sidewalk… Private  
#>  5   30315 Permitted Site Acacia melanox… 1190 S…          5 Sidewalk… Private  
#>  6   30316 Permitted Site Acacia melanox… 1190 S…          6 Sidewalk… Private  
#>  7   48435 Permitted Site Tree(s) ::      1190 S…          4 Sidewalk… Private  
#>  8   30319 Permitted Site Magnolia grand… 867 25…          2 Sidewalk… Private  
#>  9   30318 Permitted Site Magnolia grand… 867 25…          1 Sidewalk… Private  
#> 10   30320 Permitted Site Corymbia ficif… 867 25…          3 Sidewalk… Private  
#> # ℹ 192,977 more rows
#> # ℹ 5 more variables: date <date>, dbh <dbl>, plot_size <chr>, latitude <dbl>,
#> #   longitude <dbl>
…
